{
  "results": [
    {
      "vote_count": 242,
      "id": 456740,
      "video": false,
      "vote_average": 5.2,
      "title": "Hellboy",
      "popularity": 267.105,
      "poster_path": "/bk8LyaMqUtaQ9hUShuvFznQYQKR.jpg",
      "original_language": "en",
      "original_title": "Hellboy",
      "genre_ids": [
        28,
        12,
        14
      ],
      "backdrop_path": "/5BkSkNtfrnTuKOtTaZhl8avn4wU.jpg",
      "adult": false,
      "overview": "Hellboy comes to England, where he must defeat Nimue, Merlin's consort and the Blood Queen. But their battle will bring about the end of the world, a fate he desperately tries to turn away.",
      "release_date": "2019-04-10"
    },
    {
      "vote_count": 549,
      "id": 537915,
      "video": false,
      "vote_average": 6.5,
      "title": "After",
      "popularity": 244.718,
      "poster_path": "/u3B2YKUjWABcxXZ6Nm9h10hLUbh.jpg",
      "original_language": "en",
      "original_title": "After",
      "genre_ids": [
        18,
        10749
      ],
      "backdrop_path": "/8lESY7UGpOsbL2caib9Qe4bOebF.jpg",
      "adult": false,
      "overview": "A young woman falls for a guy with a dark secret and the two embark on a rocky relationship.",
      "release_date": "2019-04-11"
    },
    {
      "vote_count": 1219,
      "id": 287947,
      "video": false,
      "vote_average": 7.2,
      "title": "Shazam!",
      "popularity": 188.88,
      "poster_path": "/xnopI5Xtky18MPhK40cZAGAOVeV.jpg",
      "original_language": "en",
      "original_title": "Shazam!",
      "genre_ids": [
        35,
        12,
        14
      ],
      "backdrop_path": "/bi4jh0Kt0uuZGsGJoUUfqmbrjQg.jpg",
      "adult": false,
      "overview": "A boy is given the ability to become an adult superhero in times of need with a single magic word.",
      "release_date": "2019-03-23"
    },
    {
      "vote_count": 1587,
      "id": 166428,
      "video": false,
      "vote_average": 7.6,
      "title": "How to Train Your Dragon: The Hidden World",
      "popularity": 149.674,
      "poster_path": "/xvx4Yhf0DVH8G4LzNISpMfFBDy2.jpg",
      "original_language": "en",
      "original_title": "How to Train Your Dragon: The Hidden World",
      "genre_ids": [
        16,
        10751,
        12
      ],
      "backdrop_path": "/lFwykSz3Ykj1Q3JXJURnGUTNf1o.jpg",
      "adult": false,
      "overview": "As Hiccup fulfills his dream of creating a peaceful dragon utopia, Toothless’ discovery of an untamed, elusive mate draws the Night Fury away. When danger mounts at home and Hiccup’s reign as village chief is tested, both dragon and rider must make impossible decisions to save their kind.",
      "release_date": "2019-01-03"
    },
    {
      "vote_count": 158,
      "id": 487297,
      "video": false,
      "vote_average": 5.6,
      "title": "What Men Want",
      "popularity": 138.508,
      "poster_path": "/30IiwvIRqPGjUV0bxJkZfnSiCL.jpg",
      "original_language": "en",
      "original_title": "What Men Want",
      "genre_ids": [
        35,
        14,
        10749
      ],
      "backdrop_path": "/umecegsPpKr2ZXA62Da9CQBVoIO.jpg",
      "adult": false,
      "overview": "Magically able to hear what men are thinking, a sports agent uses her newfound ability to turn the tables on her overbearing male colleagues.",
      "release_date": "2019-02-08"
    },
    {
      "vote_count": 152,
      "id": 480414,
      "video": false,
      "vote_average": 5.4,
      "title": "The Curse of La Llorona",
      "popularity": 134.793,
      "poster_path": "/jhZlXSnFUpNiLAek9EkPrtLEWQI.jpg",
      "original_language": "en",
      "original_title": "The Curse of La Llorona",
      "genre_ids": [
        53,
        27,
        9648
      ],
      "backdrop_path": "/u2vGggeMPAkhEtD7bYGfeThsQiM.jpg",
      "adult": false,
      "overview": "A social worker dealing with the disappearance of two children fears for her own family after beginning the investigation.",
      "release_date": "2019-04-17"
    },
    {
      "vote_count": 4173,
      "id": 299537,
      "video": false,
      "vote_average": 7.1,
      "title": "Captain Marvel",
      "popularity": 360.189,
      "poster_path": "/AtsgWhDnHTq68L0lLsUrCnM7TjG.jpg",
      "original_language": "en",
      "original_title": "Captain Marvel",
      "genre_ids": [
        28,
        12,
        878
      ],
      "backdrop_path": "/w2PMyoyLU22YvrGK3smVM9fW1jj.jpg",
      "adult": false,
      "overview": "The story follows Carol Danvers as she becomes one of the universe’s most powerful heroes when Earth is caught in the middle of a galactic war between two alien races. Set in the 1990s, Captain Marvel is an all-new adventure from a previously unseen period in the history of the Marvel Cinematic Universe.",
      "release_date": "2019-03-06"
    },
    {
      "vote_count": 1218,
      "id": 299534,
      "video": false,
      "vote_average": 8.8,
      "title": "Avengers: Endgame",
      "popularity": 287.525,
      "poster_path": "/or06FN3Dka5tukK1e9sl16pB3iy.jpg",
      "original_language": "en",
      "original_title": "Avengers: Endgame",
      "genre_ids": [
        12,
        878,
        28
      ],
      "backdrop_path": "/7RyHsO4yDXtBv1zUU3mTpHeQ0d5.jpg",
      "adult": false,
      "overview": "After the devastating events of Avengers: Infinity War, the universe is in ruins due to the efforts of the Mad Titan, Thanos. With the help of remaining allies, the Avengers must assemble once more in order to undo Thanos' actions and restore order to the universe once and for all, no matter what consequences may be in store.",
      "release_date": "2019-04-24"
    },
    {
      "vote_count": 62,
      "id": 376865,
      "video": false,
      "vote_average": 6.3,
      "title": "High Life",
      "popularity": 99.731,
      "poster_path": "/wElOvH7H6sLElsTOLu1MY6oWRUx.jpg",
      "original_language": "en",
      "original_title": "High Life",
      "genre_ids": [
        878,
        12,
        18
      ],
      "backdrop_path": "/6gHdAO1Lvk9bjzhY4hX3wVRkAhF.jpg",
      "adult": false,
      "overview": "Monte and his baby daughter are the last survivors of a damned and dangerous mission to the outer reaches of the solar system. They must now rely on each other to survive as they hurtle toward the oblivion of a black hole.",
      "release_date": "2018-11-07"
    },
    {
      "vote_count": 2064,
      "id": 424783,
      "video": false,
      "vote_average": 6.4,
      "title": "Bumblebee",
      "popularity": 91.305,
      "poster_path": "/fw02ONlDhrYjTSZV8XO6hhU3ds3.jpg",
      "original_language": "en",
      "original_title": "Bumblebee",
      "genre_ids": [
        28,
        12,
        878
      ],
      "backdrop_path": "/wtZj5nn6hVwgakPdg6y6gm3eFXU.jpg",
      "adult": false,
      "overview": "On the run in the year 1987, Bumblebee finds refuge in a junkyard in a small Californian beach town. Charlie, on the cusp of turning 18 and trying to find her place in the world, discovers Bumblebee, battle-scarred and broken.  When Charlie revives him, she quickly learns this is no ordinary yellow VW bug.",
      "release_date": "2018-12-15"
    },
    {
      "vote_count": 981,
      "id": 329996,
      "video": false,
      "vote_average": 6.7,
      "title": "Dumbo",
      "popularity": 90.367,
      "poster_path": "/A7XkpLfNH0El2yyDLc4b0KLAKvE.jpg",
      "original_language": "en",
      "original_title": "Dumbo",
      "genre_ids": [
        12,
        10751,
        14
      ],
      "backdrop_path": "/5tFt6iuGnKapHl5tw0X0cKcnuVo.jpg",
      "adult": false,
      "overview": "A young elephant, whose oversized ears enable him to fly, helps save a struggling circus, but when the circus plans a new venture, Dumbo and his friends discover dark secrets beneath its shiny veneer.",
      "release_date": "2019-03-27"
    },
    {
      "vote_count": 1155,
      "id": 458723,
      "video": false,
      "vote_average": 7.2,
      "title": "Us",
      "popularity": 88.473,
      "poster_path": "/ux2dU1jQ2ACIMShzB3yP93Udpzc.jpg",
      "original_language": "en",
      "original_title": "Us",
      "genre_ids": [
        53,
        27
      ],
      "backdrop_path": "/jNUCddkM1fjYcFIcEwFjc7s2H4V.jpg",
      "adult": false,
      "overview": "Husband and wife Gabe and Adelaide Wilson take their kids to their beach house expecting to unplug and unwind with friends. But as night descends, their serenity turns to tension and chaos when some shocking visitors arrive uninvited.",
      "release_date": "2019-03-14"
    },
    {
      "vote_count": 946,
      "id": 522681,
      "video": false,
      "vote_average": 6.3,
      "title": "Escape Room",
      "popularity": 86.971,
      "poster_path": "/8Ls1tZ6qjGzfGHjBB7ihOnf7f0b.jpg",
      "original_language": "en",
      "original_title": "Escape Room",
      "genre_ids": [
        53
      ],
      "backdrop_path": "/mWLljCmpqlcYQh7uh51BBMwCZwN.jpg",
      "adult": false,
      "overview": "Six strangers find themselves in circumstances beyond their control, and must use their wits to survive.",
      "release_date": "2019-01-03"
    },
    {
      "vote_count": 4,
      "id": 576393,
      "video": false,
      "vote_average": 6.5,
      "title": "Fall in Love at First Kiss",
      "popularity": 67.239,
      "poster_path": "/wtaSH8MfJSCEIrrEX9SQuHdU5sl.jpg",
      "original_language": "zh",
      "original_title": "一吻定情",
      "genre_ids": [
        10749,
        35
      ],
      "backdrop_path": "/yY7kr7Rgvo8W0Kr3U0bMV8Zq1qM.jpg",
      "adult": false,
      "overview": "After an earthquake destroys Xiang Qin's house, she and her father move in with the family of her father's college buddy. To her surprise, her new kind and amicable aunt and uncle are the parents of her cold and distant schoolmate, Jiang Zhi Shu, a genius with an IQ of 200 whom not too long ago rejected her when she confessed her feelings for him. Will the close proximity give her a second chance to win Zhi Shu's heart? Or will her love for him end under his cold words?",
      "release_date": "2019-02-14"
    },
    {
      "vote_count": 72,
      "id": 453755,
      "video": false,
      "vote_average": 6.7,
      "title": "Arctic",
      "popularity": 61.876,
      "poster_path": "/w9GVlRteCgY103DN8CdFik3HUhO.jpg",
      "original_language": "en",
      "original_title": "Arctic",
      "genre_ids": [
        53,
        18,
        12
      ],
      "backdrop_path": "/adNNHvX31BATsQjSBurupj0gt30.jpg",
      "adult": false,
      "overview": "A man stranded in the Arctic is finally about to receive his long awaited rescue. However, after a tragic accident, his opportunity is lost and he must then decide whether to remain in the relative safety of his camp or embark on a deadly trek through the unknown for potential salvation.",
      "release_date": "2018-07-26"
    },
    {
      "vote_count": 66,
      "id": 411728,
      "video": false,
      "vote_average": 7.2,
      "title": "The Professor and the Madman",
      "popularity": 61.255,
      "poster_path": "/gtGCDLhfjW96qVarwctnuTpGOtD.jpg",
      "original_language": "en",
      "original_title": "The Professor and the Madman",
      "genre_ids": [
        18,
        36,
        9648
      ],
      "backdrop_path": "/zhNfM1CSQqJtIqelwlK9iKtSd9P.jpg",
      "adult": false,
      "overview": "Professor James Murray begins work compiling words for the first edition of the Oxford English Dictionary in the mid 19th century and receives over 10,000 entries from a patient at Broadmoor Criminal Lunatic Asylum , Dr William Minor.",
      "release_date": "2019-03-07"
    },
    {
      "vote_count": 1318,
      "id": 504172,
      "video": false,
      "vote_average": 6.4,
      "title": "The Mule",
      "popularity": 58.282,
      "poster_path": "/oeZh7yEz3PMnZLgBPhrafFHRbVz.jpg",
      "original_language": "en",
      "original_title": "The Mule",
      "genre_ids": [
        80,
        18,
        53
      ],
      "backdrop_path": "/bTeRgkAavyw1eCtSkaww18wLYNP.jpg",
      "adult": false,
      "overview": "Earl Stone, a man in his 80s, is broke, alone, and facing foreclosure of his business when he is offered a job that simply requires him to drive. Easy enough, but, unbeknownst to Earl, he’s just signed on as a drug courier for a Mexican cartel. He does so well that his cargo increases exponentially, and Earl hit the radar of hard-charging DEA agent Colin Bates.",
      "release_date": "2018-12-14"
    },
    {
      "vote_count": 2,
      "id": 498580,
      "video": false,
      "vote_average": 5,
      "title": "Kanchana 3",
      "popularity": 54.821,
      "poster_path": "/eV5uk58nNkTIDyn0HF9Hio1YBLX.jpg",
      "original_language": "ta",
      "original_title": "Kanchana 3",
      "genre_ids": [
        35,
        27
      ],
      "backdrop_path": "/6IftJA2bm4IBEGJV1nG7oJzK5TB.jpg",
      "adult": false,
      "overview": "Kanchana 3 is an UpcomingTamil horror Revenge film directed by Raghava Lawrence, starring himself, Oviya and Vedhika in the leading roles.",
      "release_date": "2019-04-19"
    },
    {
      "vote_count": 200,
      "id": 300681,
      "video": false,
      "vote_average": 5.6,
      "title": "Replicas",
      "popularity": 50.88,
      "poster_path": "/hhPBTAn9b4TYOxc1JYNsX4BFAlW.jpg",
      "original_language": "en",
      "original_title": "Replicas",
      "genre_ids": [
        53,
        878
      ],
      "backdrop_path": "/sHPfBVFq7dlnXCz1zFdbEdwcBDJ.jpg",
      "adult": false,
      "overview": "A scientist becomes obsessed with returning his family to normalcy after a terrible accident.",
      "release_date": "2018-10-25"
    },
    {
      "vote_count": 306,
      "id": 438650,
      "video": false,
      "vote_average": 5.2,
      "title": "Cold Pursuit",
      "popularity": 50.812,
      "poster_path": "/hXgmWPd1SuujRZ4QnKLzrj79PAw.jpg",
      "original_language": "en",
      "original_title": "Cold Pursuit",
      "genre_ids": [
        28,
        18,
        53,
        80
      ],
      "backdrop_path": "/brHcn8piaQwrEr9wLgmeKTNMTf4.jpg",
      "adult": false,
      "overview": "Nels Coxman's quiet life comes crashing down when his beloved son dies under mysterious circumstances. His search for the truth soon becomes a quest for revenge as he seeks coldblooded justice against a drug lord and his inner circle.",
      "release_date": "2019-02-07"
    }
  ],
  "page": 1,
  "total_results": 1096,
  "dates": {
    "maximum": "2019-05-01",
    "minimum": "2019-03-14"
  },
  "total_pages": 55
}